<svg xmlns="http://www.w3.org/2000/svg" width="19" height="19" viewBox="0 0 19 19">
    <g fill="#FFF" fill-rule="evenodd" transform="translate(-1 -1)">
        <rect width="25" height="3" x="-2" y="9" rx="1.5" transform="rotate(45 10.5 10.5)"/>
        <rect width="25" height="3" x="-2" y="9" rx="1.5" transform="scale(-1 1) rotate(45 0 -14.85)"/>
    </g>
</svg>
