<svg xmlns="http://www.w3.org/2000/svg" width="96" height="40" viewBox="0 0 96 40">
    <g fill="none">
        <path fill="#79A52B" d="M32.117 15.709H43.152V27.831H32.117zM32.126 0H43.161V11.074H32.126zM75.448 4.717c-1.557.092-14.561-.074-15.074.066v6.16c.587.166 12.252 0 14.009.057l.021 4.696h-14v7.6h15.13v4.747h5.814l.043-11.856 12.113-.044v-4.752H81.396V4.783H95.36c.094-1.586.099-3.175.013-4.761H75.46l-.013 4.695zM20.709 8.07l-5.652.195c-.348-2.2-1.34-3.513-3.479-3.913-2.139-.4-4.795-.004-5.882 1.274-.659.806-.63 1.972.07 2.744 2.812 3.108 14.782 1.5 15.721 10.239.404 3.7-1.17 6.887-4.23 8.548l-1.13.526c-.062.03-.117.07-.162.121h10.4V0H14.583c1.156.635 2.534.635 4.287 2.774.895 1.139 2 3.274 1.839 5.296M48.83 27.826h5.805c.17-.613.048-21.33.048-24.278 0-1.074.078-2.478 0-3.513L48.809 0c-.161 2.091-.022 4.783-.022 6.9 0 1.535-.091 20.33.043 20.904"/>
        <path fill="#79A52B" d="M.335 18.804l3.952-.37c.535 3.353 2.417 5.353 6.148 5.353 5.256 0 6.322-3.826 4.856-5.574-1.204-1.44-6.195-2.243-8.482-2.97-2.287-.726-3.913-1.513-5.379-3.247-.427-.534-.788-1.118-1.073-1.74l-.022 8.548zM.335 4.543C.827 3.471 1.542 2.515 2.43 1.74 3.402.973 4.51.4 5.696.048L.343 0 .335 4.543zM1.343 27.826c-.034-.378 0-.096.07-.209h.944c.09.135.056-.152.06.187h2.648c-.967-.385-1.877-.901-2.704-1.534-.38-.314-.734-.658-1.057-1.03-.321-.38-.626-.87-.939-1.214v3.8h.978z"/>
        <path fill="#272727" d="M82.543 34.783c-.16.347-.982.695-1.452.743-1.474.14-2.208-.896-2.256-2.256-.061-1.47.326-2.61 1.539-2.948.783-.2 2.174.274 2.226 1.135 0 .46.026 3.143-.057 3.326m1.148-5.296h-.787l-.27.765c-.956-1.017-2.104-1.304-3.382-.565-2.5 1.413-2.235 7.209 1.765 6.783.6-.078 1.159-.348 1.592-.77 0 1.365 0 2.357-1.052 2.87-1.17.587-2.322.195-3.435-.048v.943c1.17.34 2.139.583 3.478.187 2.687-.787 2.091-3.478 2.091-6.087v-4.091M70.674 35.47c-1.452.434-2.44-.74-2.609-1.966-.195-1.595.292-2.795 1.505-3.156 2.926-.87 3.526 4.391 1.087 5.122m-1.305-6.087c-1.817.387-2.765 2.052-2.456 4.265.256 1.852 1.739 3.23 3.913 2.774 3.874-.83 3.178-8.044-1.466-7.04M53.513 35.474c-2.991.817-3.535-4.487-1.056-5.14 3.008-.795 3.478 4.479 1.056 5.14m-1.304-6.087c-1.74.391-2.818 2.07-2.44 4.283.314 1.821 1.779 3.252 3.948 2.743 3.913-.922 3.1-8.048-1.508-7.026M13.265 32.174H9.787c.209-2.344 3.426-2.74 3.478 0m1.174.96c.052-1.873-.396-3.347-1.943-3.734-1.523-.405-3.098.441-3.6 1.935-.6 1.635-.24 3.452.752 4.374.991.921 3.248 1.065 4.535.382v-.874c-1.11.174-1.818.566-3.074.135-.905-.335-1.465-1.245-1.357-2.204l4.687-.013zM34.074 30.409c-.626-1.248-2.235-1.344-3.33-.752-.383.208-.57.508-.87.704v-4.426l-1.109-.026V36.3l1.109.022v-3.835c0-.96-.14-.957.435-1.5.337-.36.78-.602 1.265-.691 1.526-.222 1.7.795 1.7 2.108v3.913h1.074c0-1.343.182-5.021-.274-5.917M42.67 29.313c-.83.025-1.606.416-2.118 1.07l-.148-.413c-.043-.157-.074-.317-.091-.479h-.87v6.835h1.096v-3.839c0-.822-.091-1.074.374-1.504.37-.333.82-.567 1.304-.679 1.53-.247 1.713.766 1.705 2.105-.009 1.339 0 2.608 0 3.913h1.104c0-1.305.2-4.992-.265-5.93-.352-.718-1.03-1.11-2.091-1.083M92.865 30.757l-1.643 4.073c-.261-.273-.9-2.147-1.105-2.652l-1.09-2.67h-1.053c.133.446.296.882.487 1.305L90 34.587c.187.435.335.826.5 1.226.217.535-.07.848-.257 1.304-.186.457-.99 2.174-1.017 2.54h1.04l4.238-10.179c-1.382 0-.97-.317-1.626 1.261M3.043 35.413c-.521-.217-.613-.635-.608-1.304v-3.687H4.47v-.93H2.448l-.03-1.666c0-.339.03-.056-.061-.187h-.944c-.091.113-.104-.17-.07.209V29.5H.04v.935h1.265c0 1.217-.134 3.535.03 4.604.292 1.835 2.923 1.478 3.123 1.304.2-.173.078-.739.078-.96-.482.164-1.003.174-1.492.03M21.126 35.217c-1.43-.83-1.465-3.765.035-4.621.974-.557 1.813-.222 2.765 0v-.93c-1.304-.4-2.465-.614-3.622.212-2.287 1.64-2.021 6.587 1.896 6.609.56 0 1.54-.06 1.84-.474v-.796c-1.027.213-1.897.583-2.914 0M60.991 36.335L62.1 36.322 62.1 25.922 61 25.9zM90.604 23.274c-1.482.322-2.408 1.487-2.13 3.043.127.686.524 1.293 1.102 1.684.577.391 1.288.535 1.972.399 3.439-.678 2.287-5.817-.944-5.126"/>
    </g>
</svg>
