<?xml version="1.0" encoding="UTF-8"?>
<svg width="200px" height="120px" viewBox="0 0 200 120" version="1.1" xmlns="http://www.w3.org/2000/svg" xmlns:xlink="http://www.w3.org/1999/xlink">
    <!-- Generator: Sketch 63.1 (92452) - https://sketch.com -->
    <title>catalog-7</title>
    <desc>Created with Sketch.</desc>
    <g id="catalog-7" stroke="none" stroke-width="1" fill="none" fill-rule="evenodd">
        <g id="shef_tech_icons_2_bez_sorbata" transform="translate(1.000000, 1.000000)">
            <g id="Слой_4" transform="translate(1.000000, 1.000000)" fill-rule="nonzero">
                <path d="M81,69 C80.6,69 80.3,69.2 80.1,69.5 C79.9,69.8 79.9,70.2 80.1,70.5 L84,77.3 L84,98 L3,98 L3,32 L94,32 L94,69 L81,69 Z" id="Path" fill="#79B836"></path>
                <rect id="Rectangle" fill="#79B836" x="86" y="78" width="106" height="31"></rect>
                <circle id="Oval" fill="#FFFFFF" cx="48" cy="62" r="19"></circle>
                <rect id="Rectangle" fill="#FFFFFF" x="3" y="21" width="91" height="9"></rect>
                <rect id="Rectangle" fill="#FFFFFF" x="3" y="100" width="81" height="9"></rect>
                <path d="M156.5,45 C157.3,45 158,45.7 158,46.5 C158,47.3 157.3,48 156.5,48 L150.8,48 C150.9,47.5 151,47 151,46.5 C151,46 150.9,45.5 150.8,45 L156.5,45 Z" id="Path" fill="#FFFFFF"></path>
                <path d="M120,56 C120,48.8 125.8,43 133,43 L145.5,43 C147.4,43 149,44.6 149,46.5 C149,48.4 147.4,50 145.5,50 L140.6,50 C134.8,50 130.1,54.7 130.1,60.5 C130.1,64 131.8,67.1 134.4,69 L133,69 C125.8,69 120,63.2 120,56 Z" id="Path" fill="#FFFFFF"></path>
                <polygon id="Path" fill="#FFFFFF" points="174.9 71 195.3 71 192.4 76 85.6 76 82.7 71 133 71"></polygon>
                <path d="M72.1,1.3 C73.1,0.3 74.8,0.3 75.7,1.3 C76.7,2.3 76.7,3.9 75.7,4.9 L68.7,12 L61.5,12 L72.1,1.3 Z" id="Path" fill="#FFFFFF"></path>
                <path d="M68.9,14 C68.9,14 69,14 69,14 C69,14 69.1,14 69.1,14 L96.4,14 L94.3,19 L2.7,19 L0.6,14 L68.9,14 Z" id="Path" fill="#FFFFFF"></path>
                <polygon id="Path" fill="#FFFFFF" points="2.7 111 83.3 111 80.4 116 0.5 116"></polygon>
                <polygon id="Path" fill="#FFFFFF" points="82.7 116 85.6 111 192.4 111 195.3 116"></polygon>
                <path d="M134.1,100.1 C128.5,100.1 123.1,97.6 119.5,93.3 L119.3,93.1 L119.5,92.9 C123.2,88.6 128.5,86.1 134.1,86.1 C139.7,86.1 145.1,88.6 148.7,92.9 L148.9,93.1 L148.7,93.3 C145.1,97.6 139.8,100.1 134.1,100.1 Z M158,97.8 L151.4,92.5 L158,87.2 L158,97.8 Z" id="Shape" fill="#FFFFFF"></path>
                <path d="M126.5,91 C125.7,91 125,91.7 125,92.5 C125,93.3 125.7,94 126.5,94 C127.3,94 128,93.3 128,92.5 C128,91.7 127.3,91 126.5,91 Z M126.5,93 C126.2,93 126,92.8 126,92.5 C126,92.2 126.2,92 126.5,92 C126.8,92 127,92.2 127,92.5 C127,92.8 126.8,93 126.5,93 Z" id="Shape" fill="#FFFFFF"></path>
            </g>
            <g id="Слой_3" stroke="#000000" stroke-linecap="round" stroke-linejoin="round" stroke-width="2">
                <g id="Group">
                    <polygon id="Path" points="96 21 3 21 0 14 99 14"></polygon>
                    <polyline id="Path" points="82 118 0 118 3 111 86 111"></polyline>
                    <polyline id="Path" points="85.2 111 3 111 3 21 96 21 96 71"></polyline>
                    <polyline id="Path" points="85.5 100 3 100 3 32 96 32 96 70.4"></polyline>
                    <circle id="Oval" cx="49" cy="63" r="20"></circle>
                    <path d="M70.1,14 L77.5,6.6 C78.9,5.2 78.9,3 77.5,1.6 L77.5,1.6 C76.1,0.2 73.9,0.2 72.5,1.6 L60,14" id="Path"></path>
                    <polygon id="Path" points="194 78 86 78 82 71 198 71"></polygon>
                    <polygon id="Path" points="86 111 194 111 198 118 82 118"></polygon>
                    <rect id="Rectangle" x="86" y="78" width="108" height="33"></rect>
                    <g transform="translate(119.000000, 86.000000)" id="Path">
                        <path d="M0.5,7.5 L0.7,7.2 C8.8,-2.3 23.4,-2.3 31.5,7.2 L31.7,7.5 L40.9,0.1 L40.9,14.8 L31.7,7.4"></path>
                        <path d="M31.8,8.7 L31.5,9 C23.4,18.5 8.8,18.5 0.8,9 L0.5,8.7"></path>
                    </g>
                    <circle id="Oval" cx="127.5" cy="93.5" r="1"></circle>
                    <path d="M160.3,71 L141.5,71 C136.3,71 132,66.7 132,61.5 L132,61.5 C132,56.3 136.3,52 141.5,52 L146.4,52 C148.9,52 150.9,50 150.9,47.5 L150.9,47.5 C150.9,45 148.9,43 146.4,43 L134,43 C126.3,43 120,49.3 120,57 L120,57 C120,64.7 126.3,71 134,71 L175.9,71" id="Path"></path>
                    <path d="M151,45 L157.5,45 C158.9,45 160,46.1 160,47.5 L160,47.5 C160,48.9 158.9,50 157.5,50 L151,50" id="Path"></path>
                </g>
            </g>
        </g>
    </g>
</svg>