<?xml version="1.0" encoding="UTF-8"?>
<svg width="200px" height="120px" viewBox="0 0 200 120" version="1.1" xmlns="http://www.w3.org/2000/svg" xmlns:xlink="http://www.w3.org/1999/xlink">
    <!-- Generator: Sketch 63.1 (92452) - https://sketch.com -->
    <title>about-7</title>
    <desc>Created with Sketch.</desc>
    <g id="about-7" stroke="none" stroke-width="1" fill="none" fill-rule="evenodd">
        <g id="shef_tech_icons_2_poryadochnost'" transform="translate(24.000000, 15.000000)">
            <g id="Слой_4" transform="translate(2.295000, 0.762712)" fill-rule="nonzero">
                <path d="M59.364,36.9152542 C58.9815,36.9152542 58.599,37.220339 58.599,37.6779661 C58.599,38.6694915 57.7575,39.5084746 56.763,39.5084746 C55.7685,39.5084746 54.927,38.6694915 54.927,37.6779661 C54.927,37.2966102 54.621,36.9152542 54.162,36.9152542 C53.7795,36.9152542 53.397,37.220339 53.397,37.6779661 C53.397,39.5084746 54.927,41.0338983 56.763,41.0338983 C58.599,41.0338983 60.129,39.5084746 60.129,37.6779661 C60.129,37.220339 59.7465,36.9152542 59.364,36.9152542 Z" id="Path" fill="#FFFFFF"></path>
                <ellipse id="Oval" fill="#FFFFFF" cx="52.02" cy="36.3813559" rx="1" ry="1"></ellipse>
                <ellipse id="Oval" fill="#FFFFFF" cx="61.1235" cy="36.3813559" rx="1" ry="1"></ellipse>
                <path d="M47.889,18.5338983 C48.195,18.5338983 48.4245,18.3813559 48.5775,18.0762712 L48.654,17.8474576 C48.7305,17.6949153 48.7305,17.6186441 48.807,17.4661017 C49.113,16.9322034 49.419,16.4745763 49.725,16.0932203 C49.9545,15.8644068 50.184,15.6355932 50.337,15.4830508 C54.2385,11.9745763 61.5825,12.8898305 66.9375,17.6186441 C71.91,21.9661017 73.899,28.220339 71.8335,32.720339 C70.074,33.3305085 68.238,33.7118644 66.402,33.7118644 C59.8995,33.7118644 54.0855,29.8220339 51.561,23.8728814 C51.408,23.5677966 51.1785,23.4152542 50.8725,23.4152542 C50.796,23.4152542 50.796,23.4152542 50.7195,23.4152542 C50.337,23.4915254 50.1075,23.7966102 50.1075,24.1779661 C50.1075,25.8559322 49.6485,27.5338983 48.7305,29.059322 C48.7305,29.059322 48.7305,29.059322 48.7305,29.059322 C48.7305,29.059322 48.7305,29.059322 48.7305,29.059322 C46.8945,32.1101695 43.5285,33.940678 39.933,33.7118644 C39.0915,32.1864407 38.709,30.4322034 38.709,28.7542373 C38.7855,23.1864407 42.7635,18.7627119 47.889,18.5338983 Z" id="Path" fill="#FFFFFF"></path>
                <path d="M42.228,40.6525424 C42.1515,40.3474576 41.8455,40.1186441 41.5395,40.1186441 L38.709,40.1186441 C37.332,40.1186441 36.261,38.9745763 36.261,37.6779661 C36.261,36.3050847 37.4085,35.2372881 38.709,35.2372881 L40.698,35.2372881 C40.698,35.2372881 40.698,35.2372881 40.698,35.2372881 C44.5995,35.2372881 48.1185,33.1779661 50.1075,29.8220339 C50.1075,29.8220339 50.1075,29.8220339 50.1075,29.8220339 C50.1075,29.8220339 50.1075,29.8220339 50.1075,29.8220339 C50.7195,28.8305085 51.102,27.8389831 51.3315,26.7711864 C54.468,32.0338983 60.129,35.3135593 66.402,35.3135593 C67.0905,35.3135593 67.8555,35.2372881 68.544,35.1610169 C68.697,35.2372881 68.7735,35.3135593 69.003,35.3135593 L73.5165,35.3135593 C74.8935,35.3135593 75.9645,36.4576271 75.9645,37.7542373 C75.9645,39.1271186 74.817,40.1949153 73.5165,40.1949153 L70.686,40.1949153 C70.38,40.1949153 70.074,40.4237288 69.9975,40.7288136 C67.932,46.6016949 62.3475,50.5677966 56.0745,50.5677966 C49.8015,50.5677966 44.2935,46.4491525 42.228,40.6525424 Z" id="Path" fill="#FFFFFF"></path>
                <path d="M68.3145,46.3728814 C69.5385,45 70.533,43.3983051 71.2215,41.5677966 L73.5165,41.5677966 C73.593,41.5677966 73.6695,41.5677966 73.8225,41.5677966 C73.6695,43.3220339 72.828,45 71.5275,46.3728814 L68.3145,46.3728814 Z" id="Path" fill="#FFFFFF"></path>
                <path d="M69.615,47.8983051 C68.0085,48.9661017 65.943,49.6525424 63.7245,49.9576271 C64.7955,49.3474576 65.8665,48.6610169 66.7845,47.8220339 C66.861,47.8220339 66.9375,47.8983051 67.014,47.8983051 L69.615,47.8983051 Z" id="Path" fill="#FFFFFF"></path>
                <path d="M128.9025,68.1864407 C128.9025,79.3983051 119.799,88.4745763 108.5535,88.4745763 L70.4565,88.4745763 C69.003,88.4745763 67.779,87.2542373 67.779,85.8050847 C67.779,84.3559322 69.003,83.1355932 70.4565,83.1355932 L87.4395,83.1355932 C87.822,83.1355932 88.2045,82.8305085 88.2045,82.3728814 C88.2045,81.9152542 87.8985,81.6101695 87.4395,81.6101695 L70.4565,81.6101695 C69.003,81.6101695 67.779,80.3898305 67.779,78.940678 C67.779,77.4915254 69.003,76.2711864 70.4565,76.2711864 L87.4395,76.2711864 C87.822,76.2711864 88.2045,75.9661017 88.2045,75.5084746 C88.2045,75.1271186 87.8985,74.7457627 87.4395,74.7457627 L70.4565,74.7457627 C69.003,74.7457627 67.779,73.5254237 67.779,72.0762712 C67.779,70.6271186 69.003,69.4067797 70.4565,69.4067797 L87.4395,69.4067797 C87.822,69.4067797 88.2045,69.1016949 88.2045,68.6440678 C88.2045,68.1864407 87.8985,67.8813559 87.4395,67.8813559 L70.4565,67.8813559 C69.003,67.8813559 67.779,66.6610169 67.779,65.2118644 C67.779,63.7627119 69.003,62.5423729 70.4565,62.5423729 L90.1935,62.5423729 C90.576,62.5423729 90.9585,62.2372881 90.9585,61.779661 C90.9585,61.3983051 90.6525,61.0169492 90.1935,61.0169492 L88.2045,61.0169492 L88.2045,57.4322034 L98.379,62.5423729 C98.4555,62.6186441 98.6085,62.6186441 98.685,62.6186441 L116.0505,62.6186441 C116.433,62.6186441 116.8155,62.3135593 116.8155,61.8559322 C116.8155,61.3983051 116.5095,61.0932203 116.0505,61.0932203 L98.9145,61.0932203 L88.5105,55.9067797 C88.434,55.8305085 88.281,55.8305085 88.2045,55.8305085 L88.2045,55.0677966 C88.2045,54.6864407 87.8985,54.3050847 87.4395,54.3050847 C86.9805,54.3050847 86.6745,54.6101695 86.6745,55.0677966 L86.6745,61.0169492 L70.4565,61.0169492 C68.1615,61.0169492 66.3255,62.8474576 66.3255,65.1355932 C66.3255,66.5084746 67.014,67.8050847 68.085,68.4915254 C67.014,69.2542373 66.3255,70.4745763 66.3255,71.8474576 C66.3255,73.220339 67.014,74.5169492 68.085,75.2033898 C67.014,75.9661017 66.3255,77.1864407 66.3255,78.559322 C66.3255,79.9322034 67.014,81.2288136 68.085,81.9152542 C67.014,82.6779661 66.3255,83.8983051 66.3255,85.2711864 C66.3255,86.4152542 66.7845,87.4067797 67.473,88.1694915 L45.5175,88.1694915 C46.206,87.4067797 46.665,86.4152542 46.665,85.2711864 C46.665,83.8983051 45.9765,82.6016949 44.9055,81.9152542 C45.9765,81.1525424 46.665,79.9322034 46.665,78.559322 C46.665,77.1864407 45.9765,75.8898305 44.9055,75.2033898 C45.9765,74.440678 46.665,73.220339 46.665,71.8474576 C46.665,70.4745763 45.9765,69.1779661 44.9055,68.4915254 C45.9765,67.7288136 46.665,66.5084746 46.665,65.1355932 C46.665,62.8474576 44.829,61.0169492 42.534,61.0169492 L26.316,61.0169492 L26.316,55.0677966 C26.316,54.6864407 26.01,54.3050847 25.551,54.3050847 C25.1685,54.3050847 24.786,54.6101695 24.786,55.0677966 L24.786,55.8305085 C24.633,55.8305085 24.48,55.9067797 24.327,55.9830508 L18.513,61.0932203 L12.7755,61.0932203 C12.393,61.0932203 12.0105,61.3983051 12.0105,61.8559322 C12.0105,62.3135593 12.3165,62.6186441 12.7755,62.6186441 L18.819,62.6186441 C18.972,62.6186441 19.2015,62.5423729 19.278,62.4661017 L24.786,57.6610169 L24.786,61.0932203 L22.797,61.0932203 C22.4145,61.0932203 22.032,61.3983051 22.032,61.8559322 C22.032,62.2372881 22.338,62.6186441 22.797,62.6186441 L42.534,62.6186441 C43.9875,62.6186441 45.2115,63.8389831 45.2115,65.2881356 C45.2115,66.7372881 43.9875,67.9576271 42.534,67.9576271 L25.551,67.9576271 C25.1685,67.9576271 24.786,68.2627119 24.786,68.720339 C24.786,69.1779661 25.092,69.4830508 25.551,69.4830508 L42.534,69.4830508 C43.9875,69.4830508 45.2115,70.7033898 45.2115,72.1525424 C45.2115,73.6016949 43.9875,74.8220339 42.534,74.8220339 L25.551,74.8220339 C25.1685,74.8220339 24.786,75.1271186 24.786,75.5847458 C24.786,75.9661017 25.092,76.3474576 25.551,76.3474576 L42.534,76.3474576 C43.9875,76.3474576 45.2115,77.5677966 45.2115,79.0169492 C45.2115,80.4661017 43.9875,81.6864407 42.534,81.6864407 L25.551,81.6864407 C25.1685,81.6864407 24.786,81.9915254 24.786,82.4491525 C24.786,82.9067797 25.092,83.2118644 25.551,83.2118644 L42.534,83.2118644 C43.9875,83.2118644 45.2115,84.4322034 45.2115,85.8813559 C45.2115,87.3305085 43.9875,88.5508475 42.534,88.5508475 L20.349,88.5508475 C9.1035,88.4745763 0,79.3983051 0,68.1864407 C0,56.9745763 9.1035,47.8983051 20.349,47.8983051 L45.2115,47.8983051 C45.288,47.8983051 45.288,47.8983051 45.3645,47.8983051 C48.2715,50.4152542 52.02,51.940678 56.0745,51.940678 C56.6865,51.940678 57.2985,51.8644068 57.9105,51.8644068 C57.9105,51.8644068 57.9105,51.8644068 57.9105,51.8644068 L92.718,51.8644068 C99.297,51.8644068 105.723,50.5677966 111.6135,48.2033898 C111.6135,48.2033898 111.6135,48.2033898 111.6135,48.2033898 C121.482,49.6525424 128.9025,58.2711864 128.9025,68.1864407 Z" id="Path" fill="#FFFFFF"></path>
                <path d="M149.2515,23.1864407 C143.055,23.3389831 137.241,25.8559322 132.8805,30.279661 L126.9135,36.2288136 C117.81,45.3050847 105.6465,50.3389831 92.718,50.3389831 L81.6255,50.3389831 C85.221,49.1949153 88.587,47.2881356 91.494,44.7711864 C91.8,44.4661017 91.8765,44.0084746 91.5705,43.7033898 C91.2645,43.3983051 90.8055,43.3983051 90.4995,43.6271186 C85.68,47.8220339 79.4835,50.1864407 73.134,50.1864407 C72.981,50.1864407 72.828,50.2627119 72.675,50.3389831 L72.1395,50.3389831 C77.6475,49.0423729 82.5435,45.6864407 85.6035,40.7288136 C85.833,40.3474576 85.7565,39.8898305 85.374,39.6610169 C84.9915,39.4322034 84.5325,39.5847458 84.303,39.8898305 C81.1665,44.8474576 76.1175,48.1271186 70.4565,49.1186441 C71.0685,48.7372881 71.6805,48.2033898 72.216,47.7457627 C72.2925,47.6694915 72.2925,47.6694915 72.369,47.5932203 C74.205,45.8389831 75.3525,43.5508475 75.3525,41.1864407 C76.653,40.5 77.4945,39.2033898 77.4945,37.6779661 C77.4945,35.4661017 75.735,33.7118644 73.5165,33.7118644 L73.0575,33.7118644 C73.0575,33.7118644 73.0575,33.7118644 73.0575,33.7118644 C75.582,28.9067797 73.6695,22.1186441 68.697,17.2372881 C72.828,14.4152542 75.3525,9.76271186 75.3525,4.72881356 L75.1995,0.0762711864 C78.03,0.533898305 79.6365,3.73728814 81.3195,7.09322034 C83.3085,10.9830508 85.2975,15.0254237 89.5815,15.0254237 C93.024,15.0254237 95.013,12.3559322 96.696,9.22881356 C95.3955,13.5762712 92.9475,20.059322 89.046,25.7033898 C88.8165,26.0084746 88.893,26.5423729 89.199,26.7711864 C89.352,26.8474576 89.505,26.9237288 89.658,26.9237288 C89.8875,26.9237288 90.117,26.8474576 90.27,26.6186441 C97.0785,16.8559322 99.3735,5.03389831 99.45,4.5 C99.45,4.34745763 99.45,4.19491525 99.3735,4.11864407 C100.7505,1.83050847 102.2805,0.0762711864 104.652,0.0762711864 C107.9415,0.0762711864 109.701,3.50847458 111.537,7.16949153 C113.526,11.059322 115.515,15.1016949 119.799,15.1016949 C120.9465,15.1016949 121.941,14.7966102 122.7825,14.3389831 C116.9685,25.0169492 108.2475,34.2457627 99.144,39.1271186 C98.7615,39.3559322 98.6085,39.8135593 98.838,40.1186441 C98.991,40.3474576 99.2205,40.5 99.5265,40.5 C99.6795,40.5 99.756,40.5 99.909,40.4237288 C110.6955,34.7033898 120.87,23.0338983 126.6075,9.99152542 C126.6075,9.99152542 126.6075,9.99152542 126.6075,9.91525424 C127.143,9 127.602,8.08474576 128.061,7.16949153 C129.897,3.50847458 131.6565,0.0762711864 134.946,0.0762711864 C138.2355,0.0762711864 139.995,3.50847458 141.831,7.16949153 C143.055,9.68644068 144.3555,12.2033898 146.268,13.7288136 C148.1805,15.2542373 149.328,17.4661017 149.328,19.7542373 L149.328,23.1864407 L149.2515,23.1864407 Z" id="Path" fill="#79B836"></path>
            </g>
            <g id="Слой_3">
                <g id="Group" transform="translate(37.485000, 12.966102)" stroke="#000000" stroke-linecap="round" stroke-linejoin="round" stroke-width="2">
                    <path d="M5.4315,22.1949153 L3.4425,22.1949153 C1.683,22.1949153 0.2295,23.6440678 0.2295,25.3983051 C0.2295,27.1525424 1.683,28.6016949 3.4425,28.6016949 L6.273,28.6016949 C8.415,34.6271186 14.1525,38.8983051 20.8845,38.8983051 C27.6165,38.8983051 33.354,34.6271186 35.496,28.6016949 L38.3265,28.6016949 C40.086,28.6016949 41.5395,27.1525424 41.5395,25.3983051 C41.5395,23.6440678 40.086,22.1949153 38.3265,22.1949153 L33.813,22.1949153" id="Path"></path>
                    <path d="M14.3055,17.1610169 C15.2235,15.6355932 15.759,13.8050847 15.759,11.8983051 C18.2835,17.9237288 24.2505,22.1949153 31.2885,22.1949153 C33.4305,22.1949153 35.4195,21.8135593 37.2555,21.0508475 C39.627,16.3983051 37.7145,9.53389831 32.283,4.80508475 C26.5455,-0.305084746 18.8955,-1.1440678 14.688,2.66949153 C14.4585,2.89830508 14.229,3.12711864 13.9995,3.3559322 C13.617,3.81355932 13.2345,4.34745763 12.9285,4.88135593 C12.7755,5.11016949 12.699,5.33898305 12.6225,5.56779661 C12.6225,5.56779661 12.6225,5.56779661 12.6225,5.56779661 C7.1145,5.87288136 2.754,10.6016949 2.754,16.4745763 C2.754,18.5338983 3.2895,20.5169492 4.284,22.1949153 C4.6665,22.1949153 4.9725,22.2711864 5.355,22.2711864 C9.18,22.1949153 12.4695,20.2118644 14.3055,17.1610169" id="Path"></path>
                    <path d="M24.174,25.4745763 L24.174,25.4745763 C24.174,26.9237288 23.0265,28.0677966 21.573,28.0677966 L21.573,28.0677966 C20.1195,28.0677966 18.972,26.9237288 18.972,25.4745763 L18.972,25.4745763" id="Path"></path>
                </g>
                <g id="Group" transform="translate(19.890000, 26.694915)" stroke="#000000" stroke-linecap="round" stroke-linejoin="round" stroke-width="2">
                    <line x1="3.4425" y1="0.152542373" x2="3.4425" y2="6.1779661" id="Path"></line>
                    <line x1="6.5025" y1="3.20338983" x2="0.459" y2="3.20338983" id="Path"></line>
                </g>
                <g id="Group" transform="translate(144.585000, 48.050847)" stroke="#000000" stroke-linecap="round" stroke-linejoin="round" stroke-width="2">
                    <line x1="3.213" y1="0.610169492" x2="3.213" y2="6.63559322" id="Path"></line>
                    <line x1="6.1965" y1="3.58474576" x2="0.153" y2="3.58474576" id="Path"></line>
                </g>
                <g id="Group" transform="translate(0.000000, 3.050847)" stroke="#000000" stroke-linecap="round" stroke-linejoin="round" stroke-width="2">
                    <path d="M7.497,3.66101695 C7.497,6.02542373 5.5845,7.8559322 3.2895,7.8559322" id="Path"></path>
                    <path d="M11.7045,7.93220339 C9.333,7.93220339 7.497,6.02542373 7.497,3.73728814 L7.497,0.533898305" id="Path"></path>
                    <path d="M7.497,12.1271186 C7.497,9.76271186 9.4095,7.93220339 11.7045,7.93220339 L14.382,7.93220339" id="Path"></path>
                    <path d="M7.497,14.7966102 L7.497,12.1271186 C7.497,9.76271186 5.5845,7.93220339 3.2895,7.93220339 L0.612,7.93220339" id="Path"></path>
                </g>
                <g id="Group" transform="translate(134.640000, 38.898305)" stroke="#000000" stroke-linecap="round" stroke-linejoin="round" stroke-width="2">
                    <line x1="3.366" y1="0" x2="3.366" y2="6.02542373" id="Path"></line>
                    <line x1="6.3495" y1="2.97457627" x2="0.306" y2="2.97457627" id="Path"></line>
                </g>
                <g id="Group" transform="translate(135.405000, 74.745763)" stroke="#000000" stroke-linecap="round" stroke-linejoin="round" stroke-width="2">
                    <path d="M6.732,0.610169492 C6.732,3.96610169 4.0545,6.63559322 0.6885,6.63559322" id="Path"></path>
                    <path d="M12.7755,6.63559322 C9.4095,6.63559322 6.732,3.96610169 6.732,0.610169492" id="Path"></path>
                    <path d="M6.732,12.6610169 C6.732,9.30508475 9.4095,6.63559322 12.7755,6.63559322" id="Path"></path>
                    <path d="M6.732,12.6610169 C6.732,9.30508475 4.0545,6.63559322 0.6885,6.63559322" id="Path"></path>
                </g>
                <g id="Group" transform="translate(53.550000, 35.847458)" fill="#000000" fill-rule="nonzero">
                    <ellipse id="Oval" cx="0.765" cy="1.29661017" rx="1" ry="1"></ellipse>
                    <ellipse id="Oval" cx="9.8685" cy="1.29661017" rx="1" ry="1"></ellipse>
                </g>
                <g id="Group" transform="translate(68.850000, 47.288136)" stroke="#000000" stroke-linecap="round" stroke-linejoin="round" stroke-width="2">
                    <path d="M23.6385,15.6355932 L3.9015,15.6355932 C1.989,15.6355932 0.5355,17.1610169 0.5355,18.9915254 L0.5355,18.9915254 C0.5355,20.8983051 2.0655,22.3474576 3.9015,22.3474576 L20.8845,22.3474576" id="Path"></path>
                    <path d="M20.8845,22.4237288 L3.9015,22.4237288 C1.989,22.4237288 0.5355,23.9491525 0.5355,25.779661 L0.5355,25.779661 C0.5355,27.6864407 2.0655,29.1355932 3.9015,29.1355932 L20.8845,29.1355932" id="Path"></path>
                    <path d="M20.8845,29.1355932 L3.9015,29.1355932 C1.989,29.1355932 0.5355,30.6610169 0.5355,32.4915254 L0.5355,32.4915254 C0.5355,34.3983051 2.0655,35.8474576 3.9015,35.8474576 L20.8845,35.8474576" id="Path"></path>
                    <line x1="5.2785" y1="0.610169492" x2="0.5355" y2="0.610169492" id="Path"></line>
                    <path d="M20.8845,35.9237288 L3.9015,35.9237288 C1.989,35.9237288 0.5355,37.4491525 0.5355,39.279661 L0.5355,39.279661 C0.5355,41.1864407 2.0655,42.6355932 3.9015,42.6355932 L34.5015,42.6355932 L41.9985,42.6355932 C53.6265,42.6355932 63.1125,33.1779661 63.1125,21.5847458 L63.1125,21.5847458 C63.1125,11.059322 55.386,2.28813559 45.2115,0.762711864" id="Path"></path>
                </g>
                <line x1="89.7345" y1="62.9237288" x2="89.7345" y2="56.2118644" id="Path" stroke="#000000" stroke-width="2" stroke-linecap="round" stroke-linejoin="round"></line>
                <polyline id="Path" stroke="#000000" stroke-width="2" stroke-linecap="round" stroke-linejoin="round" points="90.4995 57.6610169 101.0565 62.9237288 118.422 62.9237288"></polyline>
                <g id="Group" transform="translate(1.530000, 47.288136)" stroke="#000000" stroke-linecap="round" stroke-linejoin="round" stroke-width="2">
                    <path d="M23.6385,15.6355932 L43.3755,15.6355932 C45.288,15.6355932 46.7415,17.1610169 46.7415,18.9915254 L46.7415,18.9915254 C46.7415,20.8983051 45.2115,22.3474576 43.3755,22.3474576 L26.316,22.3474576" id="Path"></path>
                    <path d="M26.316,22.4237288 L43.299,22.4237288 C45.2115,22.4237288 46.665,23.9491525 46.665,25.779661 L46.665,25.779661 C46.665,27.6864407 45.135,29.1355932 43.299,29.1355932 L26.316,29.1355932" id="Path"></path>
                    <path d="M26.316,29.1355932 L43.299,29.1355932 C45.2115,29.1355932 46.665,30.6610169 46.665,32.4915254 L46.665,32.4915254 C46.665,34.3983051 45.135,35.8474576 43.299,35.8474576 L26.316,35.8474576" id="Path"></path>
                    <path d="M26.316,35.9237288 L43.299,35.9237288 C45.2115,35.9237288 46.665,37.4491525 46.665,39.279661 L46.665,39.279661 C46.665,41.1864407 45.135,42.6355932 43.299,42.6355932 L21.114,42.6355932 C9.4095,42.7118644 0,33.3305085 0,21.6610169 L0,21.6610169 C0,10.0677966 9.486,0.610169492 21.114,0.610169492 L45.9765,0.610169492" id="Path"></path>
                </g>
                <line x1="27.846" y1="62.9237288" x2="27.846" y2="56.2118644" id="Path" stroke="#000000" stroke-width="2" stroke-linecap="round" stroke-linejoin="round"></line>
                <polyline id="Path" stroke="#000000" stroke-width="2" stroke-linecap="round" stroke-linejoin="round" points="27.1575 57.6610169 21.114 62.9237288 15.0705 62.9237288"></polyline>
                <path d="M63.7245,51.6355932 C70.992,51.6355932 76.8825,47.2881356 76.8825,41.8728814" id="Path" stroke="#000000" stroke-width="2" stroke-linecap="round" stroke-linejoin="round"></path>
                <path d="M70.6095,17.3135593 C74.4345,14.720339 76.959,10.3728814 76.959,5.41525424 L76.806,0 C84.3795,0 84.3795,15.0254237 91.8765,15.0254237 C99.45,15.0254237 99.45,0 107.0235,0 C114.597,0 114.597,15.0254237 122.094,15.0254237 C129.6675,15.0254237 129.6675,0 137.241,0 C143.514,0 144.585,10.2966102 149.022,13.8050847 C151.0875,15.4067797 152.388,17.8474576 152.388,20.440678 L152.388,24.7118644 L152.388,24.7118644 C146.1915,24.7118644 140.2245,27.1525424 135.7875,31.5762712 L129.8205,37.5254237 C120.6405,46.6779661 108.0945,51.8644068 95.0895,51.8644068 L60.2055,51.8644068" id="Path" stroke="#000000" stroke-width="2" stroke-linecap="round" stroke-linejoin="round"></path>
                <path d="M69.3855,50.9491525 C76.959,50.9491525 83.538,46.9830508 87.2865,41.1101695" id="Path" stroke="#000000" stroke-width="2" stroke-linecap="round" stroke-linejoin="round"></path>
                <path d="M75.429,51.6355932 C82.314,51.6355932 88.5105,49.1186441 93.33,44.9237288" id="Path" stroke="#000000" stroke-width="2" stroke-linecap="round" stroke-linejoin="round"></path>
                <path d="M101.8215,40.4237288 C113.1435,34.3983051 122.9355,22.3474576 128.214,10.3728814" id="Path" stroke="#000000" stroke-width="2" stroke-linecap="round" stroke-linejoin="round"></path>
                <path d="M92.0295,26.8474576 C98.838,17.0847458 101.0565,5.03389831 101.0565,5.03389831" id="Path" stroke="#000000" stroke-width="2" stroke-linecap="round" stroke-linejoin="round"></path>
            </g>
        </g>
    </g>
</svg>