<?xml version="1.0" encoding="UTF-8"?>
<svg width="60px" height="60px" viewBox="0 0 60 60" version="1.1" xmlns="http://www.w3.org/2000/svg" xmlns:xlink="http://www.w3.org/1999/xlink">
    <!-- Generator: Sketch 63.1 (92452) - https://sketch.com -->
    <title>graph-2</title>
    <desc>Created with Sketch.</desc>
    <g id="graph-2" stroke="none" stroke-width="1" fill="none" fill-rule="evenodd" stroke-linecap="round" stroke-linejoin="round">
        <g id="shef_tech_icons_2_2" transform="translate(4.000000, 4.000000)" stroke="#000000" stroke-width="2">
            <path d="M29,52 L50,52 C51.1,52 52,51.1 52,50 L52,23.4 L52,23.4 C50.5,17.2 47.7,11.3 44,6 L44,6 L35,6 L35,6 C31.3,11.2 28.6,17.1 27,23.4 L27,23.4 L27,41" id="Path"></path>
            <path d="M44,6 L46,6 L46,2 C46,0.9 45.1,0 44,0 L35,0 C33.9,0 33,0.9 33,2 L33,6 L44,6" id="Path"></path>
            <path d="M33,46 L0,46 L0,50 C0,51.1 0.9,52 2,52 L31,52 C32.1,52 33,51.1 33,50 L33,46 Z" id="Path"></path>
            <line x1="31" y1="14" x2="48" y2="14" id="Path"></line>
            <path d="M27,26 L44,26 C45.1,26 46,26.9 46,28 L46,44 C46,45.1 45.1,46 44,46 L33,46" id="Path"></path>
            <path d="M29.5,45.2 L23.1,34.1 C19.9,28.5 11.8,28.6 8.6,34.2 L2,46" id="Path"></path>
            <circle id="Oval" cx="12.5" cy="36.5" r="1"></circle>
            <circle id="Oval" cx="15.5" cy="41.5" r="1"></circle>
            <circle id="Oval" cx="9.5" cy="41.5" r="1"></circle>
        </g>
    </g>
</svg>