<?xml version="1.0" encoding="UTF-8"?>
<svg width="60px" height="60px" viewBox="0 0 60 60" version="1.1" xmlns="http://www.w3.org/2000/svg" xmlns:xlink="http://www.w3.org/1999/xlink">
    <!-- Generator: Sketch 63.1 (92452) - https://sketch.com -->
    <title>sentence-2</title>
    <desc>Created with Sketch.</desc>
    <g id="sentence-2" stroke="none" stroke-width="1" fill="none" fill-rule="evenodd">
        <g id="shef_tech_icons_2_max_vyhod" transform="translate(1.000000, 2.000000)">
            <g id="Слой_4" transform="translate(1.000000, 1.000000)" fill-rule="nonzero">
                <path d="M9.5,23 C11.5,23 13,21 13,18.5 C13,16 11.5,14 9.5,14 C7.5,14 6,16 6,18.5 C6,21 7.5,23 9.5,23 Z M9.5,16 C10.2,16 11,17 11,18.5 C11,20 10.2,21 9.5,21 C8.8,21 8,20 8,18.5 C8,17 8.8,16 9.5,16 Z" id="Shape" fill="#FFFFFF"></path>
                <path d="M0,18 C0,8.1 4.5,0 10,0 C15.5,0 20,8.1 20,18 C20,24 18.3,29.5 15.5,32.9 C15.5,32.9 15.5,33 15.5,33 L5,33 C5,33 5,33 4.9,33 C4.8,33 4.6,33 4.5,33 C1.7,29.7 0,24.1 0,18 Z" id="Path" fill="#FFFFFF"></path>
                <path d="M0,44.5 C0,39.4 2.3,35 5.1,35 C7.9,35 10.2,39.4 10.2,44.5 C10.2,49.6 7.8,54 5.1,54 C2.4,54 0,49.7 0,44.5 Z" id="Path" fill="#FFFFFF"></path>
                <polygon id="Path" fill="#FFFFFF" points="56 41.4 56 46.6 53.4 44"></polygon>
                <path d="M51.1,43.6 C51,43.9 51,44.2 51.1,44.5 C51.1,49.7 47,54 42,54 C42,54 42,54 42,54 C42,54 42,54 42,54 L9.1,54 C10.9,51.9 12.1,48.5 12.1,44.5 C12.1,40.5 10.9,37.1 9.1,35 L42,35 C42,35 42,35 42,35 C42,35 42,35 42,35 C46.8,35 50.7,38.8 51.1,43.6 Z" id="Path" fill="#FFFFFF"></path>
                <path d="M38,22 L35.2,22 C32.8,22 30.7,23.6 30.1,25.8 C29.3,28.7 27.6,31.1 25.3,33 L18,33 C20.5,29.2 22,23.8 22,18 C22,10 19.3,3.2 15.3,0 L16.7,0 C22.9,0 28.5,4.2 30.2,10.2 C30.8,12.5 32.9,14 35.3,14 L38,14 C38.6,14 39,14.4 39,15 L39,18 L39,21 C39,21.6 38.6,22 38,22 Z" id="Path" fill="#FFFFFF"></path>
                <path d="M41,20 L41,18 L41,16 L48,16 C48.6,16 49,15.6 49,15 L49,14.5 C49,13.4 49.5,12.4 50.3,11.8 C51.1,11.1 52.2,10.9 53.3,11.1 C54.6,11.4 55.7,12.5 56,13.9 C56.2,14.8 56,15.6 55.6,16.3 C54.8,17.7 54.8,19.4 55.6,20.8 C55.9,21.3 56.1,21.9 56.1,22.5 C56.1,23.6 55.6,24.6 54.8,25.2 C54,25.9 52.9,26.1 51.8,25.9 C50.5,25.6 49.4,24.5 49.1,23.2 C49,22.6 49,21.9 49.2,21.4 C49.3,21.1 49.3,20.8 49.1,20.5 C48.9,20.2 48.6,20.1 48.3,20.1 L41,20.1 L41,20 Z" id="Path" fill="#FFFFFF"></path>
                <rect id="Rectangle" fill="#FFFFFF" x="2" y="40" width="2" height="2"></rect>
                <rect id="Rectangle" fill="#FFFFFF" x="6" y="44" width="2" height="2"></rect>
                <rect id="Rectangle" fill="#FFFFFF" x="3" y="48" width="2" height="2"></rect>
                <path d="M17,34 C20.3,34 23,39.2 23,45 L39,45 C39,39.2 36.3,34 33,34 L17,34 Z" id="Path" fill="#79B836"></path>
            </g>
            <g id="Слой_3">
                <g id="Group">
                    <g stroke="#000000" stroke-linecap="round" stroke-linejoin="round" stroke-width="2">
                        <path d="M17.3,34.6 C20.1,31.1 22,25.4 22,19 C22,8.5 17.1,0 11,0 C4.9,0 0,8.5 0,19 C0,25.6 1.9,31.3 4.8,34.8" id="Path"></path>
                        <path d="M11,0 L17.7,0 C24.4,0 30.3,4.4 32.1,10.9 L32.1,10.9 C32.6,12.7 34.3,14 36.2,14 L39,14 C40.1,14 41,14.9 41,16 L41,19" id="Path"></path>
                        <path d="M26.7,35 C29.3,33.1 31.2,30.4 32.1,27.1 L32.1,27.1 C32.6,25.3 34.3,24 36.2,24 L39,24 C40.1,24 41,23.1 41,22 L41,19" id="Path"></path>
                        <ellipse id="Oval" cx="10.5" cy="19.5" rx="2.5" ry="3.5"></ellipse>
                        <path d="M41,22 L49,22 L49.3,22 C49,22.7 49,23.5 49.1,24.4 C49.4,26.1 50.8,27.6 52.5,27.9 C55.4,28.5 58,26.3 58,23.5 C58,22.7 57.8,21.9 57.4,21.3 C56.8,20.2 56.8,18.9 57.4,17.8 C57.9,16.9 58.1,15.8 57.9,14.7 C57.6,13 56.2,11.5 54.5,11.2 C51.6,10.6 49,12.8 49,15.6 L49,16 L41,16" id="Path"></path>
                    </g>
                    <ellipse id="Oval" stroke="#000000" stroke-width="2" stroke-linecap="round" stroke-linejoin="round" cx="6.1" cy="45.5" rx="6.1" ry="10.5"></ellipse>
                    <path d="M43.1,56 C48.7,56 53.2,51.3 53.2,45.5 C53.2,39.7 48.6,35 43.1,35" id="Path" stroke="#000000" stroke-width="2" stroke-linecap="round" stroke-linejoin="round"></path>
                    <line x1="43" y1="35" x2="6" y2="35" id="Path" stroke="#000000" stroke-width="2" stroke-linecap="round" stroke-linejoin="round"></line>
                    <line x1="6" y1="56" x2="43" y2="56" id="Path" stroke="#000000" stroke-width="2" stroke-linecap="round" stroke-linejoin="round"></line>
                    <polyline id="Path" stroke="#000000" stroke-width="2" stroke-linecap="round" stroke-linejoin="round" points="53 45 58 40 58 50 53 45"></polyline>
                    <rect id="Rectangle" fill="#000000" fill-rule="nonzero" x="3" y="41" width="2" height="2"></rect>
                    <rect id="Rectangle" fill="#000000" fill-rule="nonzero" x="7" y="45" width="2" height="2"></rect>
                    <rect id="Rectangle" fill="#000000" fill-rule="nonzero" x="4" y="49" width="2" height="2"></rect>
                </g>
            </g>
        </g>
    </g>
</svg>